\beamer@endinputifotherversion {3.36pt}
\headcommand {\slideentry {0}{0}{1}{1/1}{}{0}}
\headcommand {\beamer@framepages {1}{1}}
\headcommand {\sectionentry {1}{Les diff\IeC {\'e}rentes utilisations du tri par inversions}{2}{Les diff\IeC {\'e}rentes utilisations du tri par inversions}{0}}
\headcommand {\beamer@sectionpages {1}{1}}
\headcommand {\beamer@subsectionpages {1}{1}}
\headcommand {\slideentry {1}{0}{1}{2/2}{}{0}}
\headcommand {\beamer@framepages {2}{2}}
\headcommand {\slideentry {1}{0}{2}{3/3}{}{0}}
\headcommand {\beamer@framepages {3}{3}}
\headcommand {\sectionentry {2}{Pr\IeC {\'e}sentation du probl\IeC {\`e}me : tri par inversions}{4}{Pr\IeC {\'e}sentation du probl\IeC {\`e}me : tri par inversions}{0}}
\headcommand {\beamer@sectionpages {2}{3}}
\headcommand {\beamer@subsectionpages {2}{3}}
\headcommand {\slideentry {2}{0}{1}{4/4}{}{0}}
\headcommand {\beamer@framepages {4}{4}}
\headcommand {\beamer@subsectionentry {0}{2}{1}{5}{Quelques d\IeC {\'e}finitions ...}}\headcommand {\beamer@subsectionpages {4}{4}}
\headcommand {\slideentry {2}{1}{1}{5/5}{Quelques d\IeC {\'e}finitions ...}{0}}
\headcommand {\beamer@framepages {5}{5}}
\headcommand {\beamer@subsectionentry {0}{2}{2}{6}{Pr\IeC {\'e}sentation}}\headcommand {\beamer@subsectionpages {5}{5}}
\headcommand {\slideentry {2}{2}{1}{6/6}{Pr\IeC {\'e}sentation}{0}}
\headcommand {\beamer@framepages {6}{6}}
\headcommand {\sectionentry {3}{Historique des progr\IeC {\`e}s du tri par inversions}{7}{Historique des progr\IeC {\`e}s du tri par inversions}{0}}
\headcommand {\beamer@sectionpages {4}{6}}
\headcommand {\beamer@subsectionpages {6}{6}}
\headcommand {\slideentry {3}{0}{1}{7/7}{}{0}}
\headcommand {\beamer@framepages {7}{7}}
\headcommand {\slideentry {3}{0}{2}{8/8}{}{0}}
\headcommand {\beamer@framepages {8}{8}}
\headcommand {\sectionentry {4}{Pr\IeC {\'e}sentation de l'algorithme de Hannenhalli and Pevzner}{9}{Pr\IeC {\'e}sentation de l'algorithme de Hannenhalli and Pevzner}{0}}
\headcommand {\beamer@sectionpages {7}{8}}
\headcommand {\beamer@subsectionpages {7}{8}}
\headcommand {\slideentry {4}{0}{1}{9/9}{}{0}}
\headcommand {\beamer@framepages {9}{9}}
\headcommand {\slideentry {4}{0}{2}{10/10}{}{0}}
\headcommand {\beamer@framepages {10}{10}}
\headcommand {\slideentry {4}{0}{3}{11/11}{}{0}}
\headcommand {\beamer@framepages {11}{11}}
\headcommand {\sectionentry {5}{Pr\IeC {\'e}sentation de la structure pour maintenir une inversion}{12}{Pr\IeC {\'e}sentation de la structure pour maintenir une inversion}{0}}
\headcommand {\beamer@sectionpages {9}{11}}
\headcommand {\beamer@subsectionpages {9}{11}}
\headcommand {\slideentry {5}{0}{1}{12/12}{}{0}}
\headcommand {\beamer@framepages {12}{12}}
\headcommand {\beamer@subsectionentry {0}{5}{1}{13}{Bloc}}\headcommand {\beamer@subsectionpages {12}{12}}
\headcommand {\slideentry {5}{1}{1}{13/13}{Bloc}{0}}
\headcommand {\beamer@framepages {13}{13}}
\headcommand {\beamer@subsectionentry {0}{5}{2}{14}{Pair Tree}}\headcommand {\beamer@subsectionpages {13}{13}}
\headcommand {\slideentry {5}{2}{1}{14/14}{Pair Tree}{0}}
\headcommand {\beamer@framepages {14}{14}}
\headcommand {\beamer@subsectionentry {0}{5}{3}{15}{Search Tree}}\headcommand {\beamer@subsectionpages {14}{14}}
\headcommand {\slideentry {5}{3}{1}{15/15}{Search Tree}{0}}
\headcommand {\beamer@framepages {15}{15}}
\headcommand {\beamer@subsectionentry {0}{5}{4}{16}{UML de l'impl\IeC {\'e}mentation}}\headcommand {\beamer@subsectionpages {15}{15}}
\headcommand {\slideentry {5}{4}{1}{16/16}{UML de l'impl\IeC {\'e}mentation}{0}}
\headcommand {\beamer@framepages {16}{16}}
\headcommand {\slideentry {5}{4}{2}{17/17}{UML de l'impl\IeC {\'e}mentation}{0}}
\headcommand {\beamer@framepages {17}{17}}
\headcommand {\sectionentry {6}{Conclusion}{18}{Conclusion}{0}}
\headcommand {\beamer@sectionpages {12}{17}}
\headcommand {\beamer@subsectionpages {16}{17}}
\headcommand {\slideentry {6}{0}{1}{18/18}{}{0}}
\headcommand {\beamer@framepages {18}{18}}
\headcommand {\slideentry {6}{0}{2}{19/19}{}{0}}
\headcommand {\beamer@framepages {19}{19}}
\headcommand {\beamer@partpages {1}{19}}
\headcommand {\beamer@subsectionpages {18}{19}}
\headcommand {\beamer@sectionpages {18}{19}}
\headcommand {\beamer@documentpages {19}}
\headcommand {\def \inserttotalframenumber {19}}
