\relax 
\providecommand\hyper@newdestlabel[2]{}
\providecommand\HyperFirstAtBeginDocument{\AtBeginDocument}
\HyperFirstAtBeginDocument{\ifx\hyper@anchor\@undefined
\global\let\oldcontentsline\contentsline
\gdef\contentsline#1#2#3#4{\oldcontentsline{#1}{#2}{#3}}
\global\let\oldnewlabel\newlabel
\gdef\newlabel#1#2{\newlabelxx{#1}#2}
\gdef\newlabelxx#1#2#3#4#5#6{\oldnewlabel{#1}{{#2}{#3}}}
\AtEndDocument{\ifx\hyper@anchor\@undefined
\let\contentsline\oldcontentsline
\let\newlabel\oldnewlabel
\fi}
\fi}
\global\let\hyper@last\relax 
\gdef\HyperFirstAtBeginDocument#1{#1}
\providecommand*\HyPL@Entry[1]{}
\catcode `:\active 
\catcode `;\active 
\catcode `!\active 
\catcode `?\active 
\HyPL@Entry{0<</S/D>>}
\select@language{french}
\@writefile{toc}{\select@language{french}}
\@writefile{lof}{\select@language{french}}
\@writefile{lot}{\select@language{french}}
\HyPL@Entry{1<</S/D>>}
\@writefile{lof}{\contentsline {figure}{\numberline {1}{\ignorespaces Le laboratoire, r\IeC {\'e}cup\IeC {\'e}r\IeC {\'e} sur le site : \newline  http://www.murisserie.fr/projet/batiment-lina-atlanstic-de-lufr-de-sciences-a-nantes/}}{1}{figure.0.1}}
\citation{Laboratoire}
\citation{ref17}
\@writefile{lof}{\contentsline {figure}{\numberline {2}{\ignorespaces Repr\IeC {\'e}sentation de la structure de l'ADN, r\IeC {\'e}cup\IeC {\'e}r\IeC {\'e} dans la banque d'image : http://czeshop.info/2017/dna-double-helix-model-png.html}}{3}{figure.0.2}}
\citation{ref17bis}
\@writefile{lof}{\contentsline {figure}{\numberline {3}{\ignorespaces Repr\IeC {\'e}sentation de la diff\IeC {\'e}rence des g\IeC {\`e}nes entre l'Homme et la souris \cite  {ref17bis}}}{4}{figure.0.3}}
\@writefile{lof}{\contentsline {figure}{\numberline {4}{\ignorespaces Exemple d'une inversion sur une partie du g\IeC {\'e}nome, dessin\IeC {\'e}e avec draw.io}}{4}{figure.0.4}}
\citation{ref15}
\citation{ref15}
\citation{moret2012evolution}
\citation{kaplan2000faster}
\citation{ref20}
\citation{ref18}
\citation{han2006improving}
\@writefile{lof}{\contentsline {figure}{\numberline {5}{\ignorespaces Repr\IeC {\'e}sentation des mutations du g\IeC {\'e}nome sur le chromosome X d'un anc\IeC {\^e}tre commun \IeC {\`a} l'homme et la souris\cite  {ref15}}}{5}{figure.0.5}}
\citation{ref19}
\citation{hannenhalli1999transforming}
\newlabel{inverse}{{}{7}{Présentation du problème}{section*.6}{}}
\citation{ref18}
\citation{ref10}
\@writefile{lof}{\contentsline {figure}{\numberline {6}{\ignorespaces Repr\IeC {\'e}sentation des chemins possibles menant \IeC {\`a} la s\IeC {\'e}quence cibl\IeC {\'e}e, dessin\IeC {\'e} avec \href  {https://www.draw.io}{draw.io}}}{10}{figure.0.6}}
\citation{kaplan2005sorting}
\citation{ref18}
\newlabel{r\IeC {\`e}gle}{{}{11}{Explication approfondie du tri par inversions}{section*.8}{}}
\@writefile{lof}{\contentsline {figure}{\numberline {7}{\ignorespaces Repr\IeC {\'e}sentation des blocs, dessin\IeC {\'e} avec \href  {https://www.draw.io}{draw.io}}}{11}{figure.0.7}}
\@writefile{lof}{\contentsline {figure}{\numberline {8}{\ignorespaces Repr\IeC {\'e}sentation de la structure de la liste pour l\IeC {\textquoteright }exemple, dessin\IeC {\'e} avec \href  {https://www.draw.io}{draw.io}}}{12}{figure.0.8}}
\@writefile{lof}{\contentsline {figure}{\numberline {9}{\ignorespaces Inversion 1, dessin\IeC {\'e} avec \href  {https://www.draw.io}{draw.io}}}{13}{figure.0.9}}
\@writefile{lof}{\contentsline {figure}{\numberline {10}{\ignorespaces Inversion 2, dessin\IeC {\'e} avec \href  {https://www.draw.io}{draw.io}}}{13}{figure.0.10}}
\@writefile{lof}{\contentsline {figure}{\numberline {11}{\ignorespaces Inversion 3, dessin\IeC {\'e} avec \href  {https://www.draw.io}{draw.io}}}{13}{figure.0.11}}
\@writefile{lof}{\contentsline {figure}{\numberline {12}{\ignorespaces Inversion 4, dessin\IeC {\'e} avec \href  {https://www.draw.io}{draw.io}}}{14}{figure.0.12}}
\newlabel{df}{{}{14}{Explication approfondie du tri par inversions}{figure.0.12}{}}
\@writefile{lof}{\contentsline {figure}{\numberline {13}{\ignorespaces UML de la structure de donn\IeC {\'e}es }}{17}{figure.0.13}}
\citation{ref18}
\citation{kaplan2005sorting}
\bibstyle{abbrv}
\bibdata{test}
\bibcite{ref20}{1}
\bibcite{ref10}{2}
\bibcite{ref17}{3}
\bibcite{ref15}{4}
\bibcite{han2006improving}{5}
\bibcite{hannenhalli1999transforming}{6}
\bibcite{kaplan2000faster}{7}
\bibcite{ref19}{8}
\bibcite{kaplan2005sorting}{9}
\bibcite{ref17bis}{10}
\bibcite{Laboratoire}{11}
\bibcite{moret2012evolution}{12}
\bibcite{ref18}{13}
\newlabel{ind}{{}{21}{Partie 3 : Conclusion}{chapter*.11}{}}
\@writefile{lof}{\contentsline {figure}{\numberline {14}{\ignorespaces Repr\IeC {\'e}sentation des AVL's associ\IeC {\'e}s aux blocs, dessin\IeC {\'e} avec \href  {https://www.draw.io}{draw.io}}}{21}{figure.0.14}}
\@writefile{lof}{\contentsline {figure}{\numberline {15}{\ignorespaces Repr\IeC {\'e}sentation des AVL's associ\IeC {\'e}s aux blocs, dessin\IeC {\'e} avec \href  {https://www.draw.io}{draw.io}}}{22}{figure.0.15}}
\@writefile{lof}{\contentsline {figure}{\numberline {16}{\ignorespaces Repr\IeC {\'e}sentation des AVL's associ\IeC {\'e}s aux blocs, dessin\IeC {\'e} avec \href  {https://www.draw.io}{draw.io}}}{23}{figure.0.16}}
\@writefile{lof}{\contentsline {figure}{\numberline {17}{\ignorespaces Repr\IeC {\'e}sentation des AVL's associ\IeC {\'e}s aux blocs, dessin\IeC {\'e} avec \href  {https://www.draw.io}{draw.io}}}{24}{figure.0.17}}
\@writefile{lof}{\contentsline {figure}{\numberline {18}{\ignorespaces Repr\IeC {\'e}sentation des AVL's associ\IeC {\'e}s aux blocs, dessin\IeC {\'e} avec \href  {https://www.draw.io}{draw.io}}}{25}{figure.0.18}}
\@writefile{lof}{\contentsline {figure}{\numberline {19}{\ignorespaces Repr\IeC {\'e}sentation des AVL's associ\IeC {\'e}s aux blocs, dessin\IeC {\'e} avec \href  {https://www.draw.io}{draw.io}}}{26}{figure.0.19}}
\@writefile{lof}{\contentsline {figure}{\numberline {20}{\ignorespaces Repr\IeC {\'e}sentation des AVL's associ\IeC {\'e}s aux blocs, dessin\IeC {\'e} avec \href  {https://www.draw.io}{draw.io}}}{27}{figure.0.20}}
